;******************************************************************************
;*
;*  TX8 8-bit color computer
;*
;*  inodes.i
;*    Inodes management
;*
;******************************************************************************
