;******************************************************************************
;*
;*  TX8 8-bit color computer
;*
;*  partition.i
;*
;******************************************************************************

  .import   txfs_part_init
  .import   txfs_load_partition
