;******************************************************************************
;*
;*  TX8 8-bit color computer
;*
;*  os.i
;*
;******************************************************************************

.struct txos_iocb
  
